IS415-GAA - In-Class Exercise 6: Spatial Weights - sfdep method
…
# geographic coordinate system is not good for distance-based metrics, but if you're going for contiguity its ok

2.2 Importing attribute table

Import the data as a tibble data frame.

hunan_2012 <- read_csv("data/aspatial/Hunan_2012.csv")

hunan_2012

# A tibble: 88 × 29
   County    City     avg_w…¹ depos…²    FAI Gov_Rev Gov_Exp    GDP GDPPC    GIO
   <chr>     <chr>      <dbl>   <dbl>  <dbl>   <dbl>   <dbl>  <dbl> <dbl>  <dbl>
 1 Anhua     Yiyang     30544  10967   6832.    457.   2703  13225  14567  9277.
 2 Anren     Chenzhou   28058   4599.  6386.    221.   1455.  4941. 12761  4189.
 3 Anxiang   Changde    31935   5517.  3541     244.   1780. 12482  23667  5109.
 4 Baojing   Hunan W…   30843   2250   1005.    193.   1379.  4088. 14563  3624.
 5 Chaling   Zhuzhou    31251   8241.  6508.    620.   1947  11585  20078  9158.
 6 Changning Hengyang   28518  10860   7920     770.   2632. 19886  24418 37392 
 7 Changsha  Changsha   54540  24332  33624    5350    7886. 88009  88656 51361 
 8 Chengbu   Shaoyang   28597   2581.  1922.    161.   1192.  2570. 10132  1681.
 9 Chenxi    Huaihua    33580   4990   5818.    460.   1724.  7755. 17026  6644.
10 Cili      Zhangji…   33099   8117.  4498.    500.   2306. 11378  18714  5843.
# … with 78 more rows, 19 more variables: Loan <dbl>, NIPCR <dbl>, Bed <dbl>,
#   Emp <dbl>, EmpR <dbl>, EmpRT <dbl>, Pri_Stu <dbl>, Sec_Stu <dbl>,
#   Household <dbl>, Household_R <dbl>, NOIP <dbl>, Pop_R <dbl>, RSCG <dbl>,
#   Pop_T <dbl>, Agri <dbl>, Service <dbl>, Disp_Inc <dbl>, RORP <dbl>,
#   ROREmp <dbl>, and abbreviated variable names ¹​avg_wage, ²​deposite
…
